..................
----------------------------------------------------------------------
Ran 18 tests in 0.752s

OK
Name             Stmts   Miss Branch BrPart  Cover   Missing
------------------------------------------------------------
Collatz.py          54      0     26      1    99%   39->59
TestCollatz.py      75      0      6      0   100%
------------------------------------------------------------
TOTAL              129      0     32      1    99%
