1 10 20
100 200 125
201 210 89
900 1000 174
1000 9000 262
999998 999999 259
898989 898989 88
5 5 6
45 48 105
100 50 119
987645 987650 184
684579 685438 354
124853 153935 375
193490 193215 254
798153 489332 509
762547 489318 509
816566 535911 509
1 1 1
999999 999999 259
363289 471886 449
150320 752681 509
233463 769273 509
136055 528989 470
363077 465687 449
231242 185583 443
650789 990223 525
992134 235628 525
138738 332133 443
193924 572347 470
599480 429133 470
303252 195799 443
79405 540146 470
463245 584325 470
47417 888728 525
997923 786029 525
324268 972181 525
183968 731941 509
786945 25160 509
138831 540026 470
236547 923945 525
556886 735279 509
855168 587300 525
693409 627229 442
94413 423460 449
80776 879196 525
527816 20852 470
117385 772793 509
61596 106530 354
563571 355655 470
432614 976743 525
256112 57855 443
14093 247004 443
614675 761706 509
267716 357436 441
101793 104096 310
10624 822349 509
490378 403841 449
72171 364916 443
213467 183968 373
513830 832868 509
988297 835840 525
9985 242821 443
812812 769419 468
623541 269312 470
259743 256010 345
631445 291446 509
296051 523952 470
513798 367545 470
61433 453652 449
51658 894017 525
818145 485073 509
628982 226930 509
696031 64835 509
551665 807145 509
984124 541380 525
361325 644887 509
863629 730023 525
509106 944713 525
270002 727515 509
787102 692404 504
265243 414276 449
938814 626961 525
114500 563875 470
359749 955365 525
944724 293156 525
847787 757166 525
365257 435047 449
5155 57350 340
899677 310926 525
794101 168055 509
131413 147657 375
653002 614226 509
993107 159432 525
507866 715920 509
26724 970425 525
589607 465775 470
654814 392510 509
806265 134689 509
913923 243299 525
54039 135771 354
931436 315578 525
890712 821940 525
577018 172659 470
146211 574205 470
267785 771039 509
495318 982582 525
137342 89608 354
853693 977896 507
793161 79331 509
50850 352703 443
115797 466518 449
910398 974708 507
423499 848907 525
505192 504406 320
317624 605518 470
161887 444944 449
473419 680003 509
433239 179468 449
740935 536263 509
336469 134110 443
689236 685217 398
825128 396494 509
139480 976596 525
169739 567384 470
905754 490687 525
628033 876460 525
403905 113397 443
228495 691115 509
53765 153064 375
375738 528915 470
328366 115469 443
567091 82039 470
364503 626370 509
847130 212806 525
239435 170933 443
884104 19369 525
322994 111873 443
529797 121567 470
260286 501173 449
616201 80322 470
826184 555529 509
485824 999629 525
371378 213738 443
674706 582149 509
499421 989373 525
121481 795868 509
978953 597130 525
236950 760770 509
105049 8859 351
246478 121258 443
71290 370587 443
62563 832970 509
716995 809115 468
5179 338733 443
205670 746601 509
693918 262479 509
920993 365015 525
566384 414619 470
368769 415922 449
769992 606502 509
908197 996166 507
955521 496745 525
725995 965516 525
611677 890184 525
28204 674022 509
334554 865827 525
413855 78477 449
34581 119213 354
669454 101762 509
