1 10 20
100 200 125
201 210 89
900 1000 174
1 1 1
1 9999 262
100 1 119
1 99999 351
99999 1 351
10 20 21
163 410 144
533 19230 279
1 21039 279
93843 73483 351
45324 13423 324
2344 56348 340
342 583 142
7829 231 262
48293 1938 324
34 23482 279
23423 43432 324
849 1 171
1 2 2
8349 2343 262
99999 99999 227
748 3489 217
12 13 10
8493 34940 311
38 34 22
78 79 36
556 4583 238
45 5451 238
45 451 144
45 45 17
99999 99999 227
12 13 10
5845 8459 262
48393 1 324
8093 9430 260
3432 8594 262
9302 58920 340
8493 9509 260
2934 89898 351
4834 4324 215
12341 2341 268
1 2 2
4523 5456 210
3453 5435 238
93850 8493 351
5930 54839 340
58392 583 340
1829 349 182
2493 3849 238
1 3 8
1 4 8
5 4 6
394 2394 183
234 4329 238
593 293 144
34 34 14
729 4839 238
493 9303 262
4 5 6
134 439 144
839 3490 217
34 5839 238
4390 349 238
5960 4839 236
493 485 142
51830 5830 324
40 19 112
59 48 113
40 12 112
59123 589 340
7 8 17
1 3 8
5930 8 238
410 5902 238
510 593 137
839 9 171
4830 1283 238
1000 2000 182
1000 3000 217
1000 4000 238
1000 5000 238
1000 6000 238
1000 7000 262
1000 8000 262
10 40 112
99 100 26
1 20 21
80 90 111
500 600 137
392 593 142
59102 4583 340
60 61 20
1829 4392 238
1324 5028 238
8000 9000 247
9000 10000 260
80000 9000 351
400 500 142
600 700 145
1 800 171
1 900 179
1 1000 179
1000 1 179
600 640 132
