1 10 20
100 200 125
201 210 89
900 1000 174
7598 3657 262
6197 886 262
1559 7430 262
3074 7554 262
5575 1156 238
8830 1077 262
2734 3410 217
3392 2267 217
9189 8504 247
2868 3407 217
802 1387 182
4961 5051 179
5412 9296 262
3696 2331 217
5492 1501 238
8985 7637 252
6873 2797 262
2434 2309 183
4259 4153 202
1811 2838 209
7824 1024 262
5238 5317 192
5516 1761 238
9575 9411 198
5189 108 238
631 6398 262
3182 7551 262
4039 7025 262
5531 6292 262
4423 9132 262
5075 8696 262
5252 2630 238
226 3608 217
1965 5575 238
4018 8340 262
7520 1780 262
6135 1672 238
8387 1277 262
4145 3907 189
15 538 144
785 3412 217
1407 7902 262
9873 6868 260
7447 5130 262
6592 2555 262
6733 2936 262
5389 4515 210
7785 9821 260
3434 6523 262
1866 5845 238
5314 4530 210
3652 7558 262
6664 5516 262
522 4119 238
2089 1908 175
5135 8472 262
3731 5335 215
8101 7943 252
4505 3485 238
9971 7109 260
7674 4115 262
5045 4196 215
9465 7191 260
6427 3931 262
5941 6522 262
8672 7964 234
2060 1882 175
4079 4310 202
5757 2228 238
8564 468 262
1048 7449 262
8856 829 262
1726 6085 238
3109 8863 262
851 4845 238
5915 3140 238
2048 2223 183
2207 395 182
2461 358 183
9201 1367 262
8231 5128 262
5657 5379 236
2239 9003 262
4817 8421 262
3213 68 217
70 7829 262
488 9421 262
5592 3746 236
396 627 142
9001 801 262
2654 5823 238
1498 3984 238
1118 4003 238
9502 8915 260
623 3695 217
883 8129 262
8065 9081 247
7079 936 262
2633 6032 238
4374 7682 262
1476 356 182
7395 7237 208
8666 4249 262
7970 9283 260
85 3282 217
7640 3700 262
8363 4842 262
